\relax 
\providecommand\hyper@newdestlabel[2]{}
\catcode`"\active
\providecommand\HyperFirstAtBeginDocument{\AtBeginDocument}
\HyperFirstAtBeginDocument{\ifx\hyper@anchor\@undefined
\global\let\oldcontentsline\contentsline
\gdef\contentsline#1#2#3#4{\oldcontentsline{#1}{#2}{#3}}
\global\let\oldnewlabel\newlabel
\gdef\newlabel#1#2{\newlabelxx{#1}#2}
\gdef\newlabelxx#1#2#3#4#5#6{\oldnewlabel{#1}{{#2}{#3}}}
\AtEndDocument{\ifx\hyper@anchor\@undefined
\let\contentsline\oldcontentsline
\let\newlabel\oldnewlabel
\fi}
\fi}
\global\let\hyper@last\relax 
\gdef\HyperFirstAtBeginDocument#1{#1}
\providecommand\HyField@AuxAddToFields[1]{}
\providecommand\HyField@AuxAddToCoFields[2]{}
\select@language{russian}
\@writefile{toc}{\select@language{russian}}
\@writefile{lof}{\select@language{russian}}
\@writefile{lot}{\select@language{russian}}
\@writefile{toc}{\contentsline {section}{\textbf  {\ignorespaces {\IeC {\CYRA }\IeC {\CYRN }\IeC {\CYRN }\IeC {\CYRO }\IeC {\CYRT }\IeC {\CYRA }\IeC {\CYRC }\IeC {\CYRI }\IeC {\CYRYA }}}}{3}{section*.1}}
\@writefile{toc}{\contentsline {section}{\textbf  {\ignorespaces {\IeC {\CYRV }\IeC {\CYRV }\IeC {\CYRE }\IeC {\CYRD }\IeC {\CYRE }\IeC {\CYRN }\IeC {\CYRI }\IeC {\CYRE }}}}{4}{section*.2}}
\@writefile{toc}{\contentsline {section}{\numberline {\hbox to 0pt{\hss }{{\textbf  {1.\ }}}}{{\textbf  {\ignorespaces {\IeC {\CYRP }\IeC {\cyro }\IeC {\cyrs }\IeC {\cyrt }\IeC {\cyra }\IeC {\cyrn }\IeC {\cyro }\IeC {\cyrv }\IeC {\cyrk }\IeC {\cyra } \IeC {\cyrz }\IeC {\cyra }\IeC {\cyrd }\IeC {\cyra }\IeC {\cyrch }\IeC {\cyri }}}}}}{6}{section*.3}}
\newlabel{sys1}{{1}{6}{}{equation.1.1}{}}
\@writefile{toc}{\contentsline {section}{\numberline {\hbox to 0pt{\hss }{{\textbf  {2.\ }}}}{{\textbf  {\ignorespaces {\IeC {\CYRP }\IeC {\cyrr }\IeC {\cyri }\IeC {\cyrv }\IeC {\cyre }\IeC {\cyrd }\IeC {\cyre }\IeC {\cyrn }\IeC {\cyri }\IeC {\cyre } \IeC {\cyrk } \IeC {\cyrk }\IeC {\cyra }\IeC {\cyrn }\IeC {\cyro }\IeC {\cyrn }\IeC {\cyri }\IeC {\cyrch }\IeC {\cyre }\IeC {\cyrs }\IeC {\cyrk }\IeC {\cyro }\IeC {\cyrm }\IeC {\cyru } \IeC {\cyrv }\IeC {\cyri }\IeC {\cyrd }\IeC {\cyru }}}}}}{7}{section*.4}}
\@writefile{toc}{\contentsline {subsection}{\numberline {\hbox to 0pt{\hss }{{2.1.\ }}}{\ignorespaces {\IeC {\CYRP }\IeC {\cyrr }\IeC {\cyri }\IeC {\cyrv }\IeC {\cyre }\IeC {\cyrd }\IeC {\cyre }\IeC {\cyrn }\IeC {\cyri }\IeC {\cyre } \IeC {\cyrv } \IeC {\cyro }\IeC {\cyrb }\IeC {\cyrshch }\IeC {\cyre }\IeC {\cyrm } \IeC {\cyrv }\IeC {\cyri }\IeC {\cyrd }\IeC {\cyre }}}}{7}{section*.5}}
\newlabel{l1}{{1}{7}{}{theorem.1}{}}
\newlabel{sys2}{{2}{7}{}{equation.2.2}{}}
\newlabel{t2}{{2}{8}{}{theorem.2}{}}
\newlabel{t3}{{3}{9}{}{theorem.3}{}}
\newlabel{eq1}{{3}{9}{}{equation.2.3}{}}
\newlabel{comm}{{4}{10}{}{equation.2.4}{}}
\newlabel{comm2}{{5}{10}{}{equation.2.5}{}}
\newlabel{cansys}{{6}{12}{}{equation.2.6}{}}
\@writefile{toc}{\contentsline {subsection}{\numberline {\hbox to 0pt{\hss }{{2.2.\ }}}{\ignorespaces {\IeC {\CYRP }\IeC {\cyrr }\IeC {\cyri }\IeC {\cyrm }\IeC {\cyre }\IeC {\cyrr }}}}{12}{section*.6}}
\newlabel{dsys}{{7}{12}{}{equation.2.7}{}}
\newlabel{u_tau}{{2.2}{16}{}{equation.2.7}{}}
\newlabel{change}{{8}{18}{}{equation.2.8}{}}
\newlabel{zet}{{9}{18}{}{equation.2.9}{}}
\newlabel{canzet}{{10}{18}{}{equation.2.10}{}}
\@writefile{toc}{\contentsline {section}{\numberline {\hbox to 0pt{\hss }{{\textbf  {3.\ }}}}{{\textbf  {\ignorespaces {\IeC {\CYRR }\IeC {\cyre }\IeC {\cyrsh }\IeC {\cyre }\IeC {\cyrn }\IeC {\cyri }\IeC {\cyre } \IeC {\cyrt }\IeC {\cyre }\IeC {\cyrr }\IeC {\cyrm }\IeC {\cyri }\IeC {\cyrn }\IeC {\cyra }\IeC {\cyrl }\IeC {\cyrsftsn }\IeC {\cyrn }\IeC {\cyro }\IeC {\cyrishrt } \IeC {\cyrz }\IeC {\cyra }\IeC {\cyrd }\IeC {\cyra }\IeC {\cyrch }\IeC {\cyri } \IeC {\cyrd }\IeC {\cyrl }\IeC {\cyrya } \IeC {\cyrs }\IeC {\cyri }\IeC {\cyrs }\IeC {\cyrt }\IeC {\cyre }\IeC {\cyrm }\IeC {\cyrery } \IeC {\cyrk }\IeC {\cyra }\IeC {\cyrn }\IeC {\cyro }\IeC {\cyrn }\IeC {\cyri }\IeC {\cyrch }\IeC {\cyre }\IeC {\cyrs }\IeC {\cyrk }\IeC {\cyro }\IeC {\cyrg }\IeC {\cyro } \IeC {\cyrv }\IeC {\cyri }\IeC {\cyrd }\IeC {\cyra }}}}}}{19}{section*.7}}
\@writefile{toc}{\contentsline {subsection}{\numberline {\hbox to 0pt{\hss }{{3.1.\ }}}{\ignorespaces {\IeC {\CYRR }\IeC {\cyre }\IeC {\cyrsh }\IeC {\cyre }\IeC {\cyrn }\IeC {\cyri }\IeC {\cyre } \IeC {\cyrv } \IeC {\cyro }\IeC {\cyrb }\IeC {\cyrshch }\IeC {\cyre }\IeC {\cyrm } \IeC {\cyrv }\IeC {\cyri }\IeC {\cyrd }\IeC {\cyre }}}}{19}{section*.8}}
\newlabel{int}{{11}{19}{}{equation.3.11}{}}
\newlabel{cauchy}{{12}{19}{}{equation.3.12}{}}
\newlabel{u_tau}{{13}{20}{}{equation.3.13}{}}
\@writefile{toc}{\contentsline {subsection}{\numberline {\hbox to 0pt{\hss }{{3.2.\ }}}{\ignorespaces {\IeC {\CYRP }\IeC {\cyrr }\IeC {\cyri }\IeC {\cyrm }\IeC {\cyre }\IeC {\cyrr } 1. \IeC {\CYRR }\IeC {\cyre }\IeC {\cyrsh }\IeC {\cyre }\IeC {\cyrn }\IeC {\cyri }\IeC {\cyre } \IeC {\cyrs }\IeC {\cyri }\IeC {\cyrs }\IeC {\cyrt }\IeC {\cyre }\IeC {\cyrm }\IeC {\cyrery } \IeC {\cyrp }\IeC {\cyrr }\IeC {\cyri } \IeC {\cyrk }\IeC {\cyro }\IeC {\cyrn }\IeC {\cyre }\IeC {\cyrch }\IeC {\cyrn }\IeC {\cyro }\IeC {\cyrm } \IeC {\cyrv }\IeC {\cyrr }\IeC {\cyre }\IeC {\cyrm }\IeC {\cyre }\IeC {\cyrn }\IeC {\cyri }, \IeC {\cyrn }\IeC {\cyre } \IeC {\cyrz }\IeC {\cyra }\IeC {\cyrd }\IeC {\cyra }\IeC {\cyrn }\IeC {\cyrn }\IeC {\cyro }\IeC {\cyrm } \IeC {\cyri }\IeC {\cyrz }\IeC {\cyrn }\IeC {\cyra }\IeC {\cyrch }\IeC {\cyra }\IeC {\cyrl }\IeC {\cyrsftsn }\IeC {\cyrn }\IeC {\cyro }}}}{20}{section*.9}}
\newlabel{cond}{{14}{20}{}{equation.3.14}{}}
\@writefile{lof}{\contentsline {figure}{\numberline {1}{\ignorespaces \IeC {\CYRG }\IeC {\cyrr }\IeC {\cyra }\IeC {\cyrf }\IeC {\cyri }\IeC {\cyrk } $u$\relax }}{23}{figure.caption.10}}
\@writefile{lof}{\contentsline {figure}{\numberline {2}{\ignorespaces \IeC {\CYRG }\IeC {\cyrr }\IeC {\cyra }\IeC {\cyrf }\IeC {\cyri }\IeC {\cyrk } $x_1$\relax }}{23}{figure.caption.11}}
\@writefile{lof}{\contentsline {figure}{\numberline {3}{\ignorespaces \IeC {\CYRG }\IeC {\cyrr }\IeC {\cyra }\IeC {\cyrf }\IeC {\cyri }\IeC {\cyrk } $x_2$\relax }}{24}{figure.caption.12}}
\@writefile{lof}{\contentsline {figure}{\numberline {4}{\ignorespaces \IeC {\CYRG }\IeC {\cyrr }\IeC {\cyra }\IeC {\cyrf }\IeC {\cyri }\IeC {\cyrk } $x_3$\relax }}{24}{figure.caption.13}}
\@writefile{lof}{\contentsline {figure}{\numberline {5}{\ignorespaces \IeC {\CYRG }\IeC {\cyrr }\IeC {\cyra }\IeC {\cyrf }\IeC {\cyri }\IeC {\cyrk } $v$\relax }}{25}{figure.caption.14}}
\@writefile{lof}{\contentsline {figure}{\numberline {6}{\ignorespaces \IeC {\CYRG }\IeC {\cyrr }\IeC {\cyra }\IeC {\cyrf }\IeC {\cyri }\IeC {\cyrk } $z_1$\relax }}{25}{figure.caption.15}}
\@writefile{lof}{\contentsline {figure}{\numberline {7}{\ignorespaces \IeC {\CYRG }\IeC {\cyrr }\IeC {\cyra }\IeC {\cyrf }\IeC {\cyri }\IeC {\cyrk } $z_2$\relax }}{26}{figure.caption.16}}
\@writefile{lof}{\contentsline {figure}{\numberline {8}{\ignorespaces \IeC {\CYRG }\IeC {\cyrr }\IeC {\cyra }\IeC {\cyrf }\IeC {\cyri }\IeC {\cyrk } $z_3$\relax }}{26}{figure.caption.17}}
\@writefile{toc}{\contentsline {subsection}{\numberline {\hbox to 0pt{\hss }{{3.3.\ }}}{\ignorespaces {\IeC {\CYRP }\IeC {\cyrr }\IeC {\cyri }\IeC {\cyrm }\IeC {\cyre }\IeC {\cyrr } 2. \IeC {\CYRR }\IeC {\cyre }\IeC {\cyrsh }\IeC {\cyre }\IeC {\cyrn }\IeC {\cyri }\IeC {\cyre } \IeC {\cyrs }\IeC {\cyri }\IeC {\cyrs }\IeC {\cyrt }\IeC {\cyre }\IeC {\cyrm }\IeC {\cyrery } \IeC {\cyrp }\IeC {\cyrr }\IeC {\cyri } \IeC {\cyrz }\IeC {\cyra }\IeC {\cyrd }\IeC {\cyra }\IeC {\cyrn }\IeC {\cyrn }\IeC {\cyro }\IeC {\cyrm } \IeC {\cyrk }\IeC {\cyro }\IeC {\cyrn }\IeC {\cyre }\IeC {\cyrch }\IeC {\cyrn }\IeC {\cyro }\IeC {\cyrm } \IeC {\cyrv }\IeC {\cyrr }\IeC {\cyre }\IeC {\cyrm }\IeC {\cyre }\IeC {\cyrn }\IeC {\cyri }}}}{27}{section*.18}}
\@writefile{lof}{\contentsline {figure}{\numberline {9}{\ignorespaces \IeC {\CYRG }\IeC {\cyrr }\IeC {\cyra }\IeC {\cyrf }\IeC {\cyri }\IeC {\cyrk } $u$\relax }}{28}{figure.caption.19}}
\@writefile{lof}{\contentsline {figure}{\numberline {10}{\ignorespaces \IeC {\CYRG }\IeC {\cyrr }\IeC {\cyra }\IeC {\cyrf }\IeC {\cyri }\IeC {\cyrk } $x_1$\relax }}{29}{figure.caption.20}}
\@writefile{lof}{\contentsline {figure}{\numberline {11}{\ignorespaces \IeC {\CYRG }\IeC {\cyrr }\IeC {\cyra }\IeC {\cyrf }\IeC {\cyri }\IeC {\cyrk } $x_2$\relax }}{29}{figure.caption.21}}
\@writefile{lof}{\contentsline {figure}{\numberline {12}{\ignorespaces \IeC {\CYRG }\IeC {\cyrr }\IeC {\cyra }\IeC {\cyrf }\IeC {\cyri }\IeC {\cyrk } $x_3$\relax }}{30}{figure.caption.22}}
\@writefile{lof}{\contentsline {figure}{\numberline {13}{\ignorespaces \IeC {\CYRG }\IeC {\cyrr }\IeC {\cyra }\IeC {\cyrf }\IeC {\cyri }\IeC {\cyrk } $v$\relax }}{30}{figure.caption.23}}
\@writefile{lof}{\contentsline {figure}{\numberline {14}{\ignorespaces \IeC {\CYRG }\IeC {\cyrr }\IeC {\cyra }\IeC {\cyrf }\IeC {\cyri }\IeC {\cyrk } $z_1$\relax }}{31}{figure.caption.24}}
\@writefile{lof}{\contentsline {figure}{\numberline {15}{\ignorespaces \IeC {\CYRG }\IeC {\cyrr }\IeC {\cyra }\IeC {\cyrf }\IeC {\cyri }\IeC {\cyrk } $z_2$\relax }}{31}{figure.caption.25}}
\@writefile{lof}{\contentsline {figure}{\numberline {16}{\ignorespaces \IeC {\CYRG }\IeC {\cyrr }\IeC {\cyra }\IeC {\cyrf }\IeC {\cyri }\IeC {\cyrk } $z_3$\relax }}{32}{figure.caption.26}}
\@writefile{lof}{\contentsline {figure}{\numberline {17}{\ignorespaces \IeC {\CYRG }\IeC {\cyrr }\IeC {\cyra }\IeC {\cyrf }\IeC {\cyri }\IeC {\cyrk } $u$\relax }}{33}{figure.caption.27}}
\@writefile{lof}{\contentsline {figure}{\numberline {18}{\ignorespaces \IeC {\CYRG }\IeC {\cyrr }\IeC {\cyra }\IeC {\cyrf }\IeC {\cyri }\IeC {\cyrk } $x_1$\relax }}{33}{figure.caption.28}}
\@writefile{lof}{\contentsline {figure}{\numberline {19}{\ignorespaces \IeC {\CYRG }\IeC {\cyrr }\IeC {\cyra }\IeC {\cyrf }\IeC {\cyri }\IeC {\cyrk } $x_2$\relax }}{34}{figure.caption.29}}
\@writefile{lof}{\contentsline {figure}{\numberline {20}{\ignorespaces \IeC {\CYRG }\IeC {\cyrr }\IeC {\cyra }\IeC {\cyrf }\IeC {\cyri }\IeC {\cyrk } $x_3$\relax }}{34}{figure.caption.30}}
\@writefile{lof}{\contentsline {figure}{\numberline {21}{\ignorespaces \IeC {\CYRG }\IeC {\cyrr }\IeC {\cyra }\IeC {\cyrf }\IeC {\cyri }\IeC {\cyrk } $v$\relax }}{35}{figure.caption.31}}
\@writefile{lof}{\contentsline {figure}{\numberline {22}{\ignorespaces \IeC {\CYRG }\IeC {\cyrr }\IeC {\cyra }\IeC {\cyrf }\IeC {\cyri }\IeC {\cyrk } $z_1$\relax }}{35}{figure.caption.32}}
\@writefile{lof}{\contentsline {figure}{\numberline {23}{\ignorespaces \IeC {\CYRG }\IeC {\cyrr }\IeC {\cyra }\IeC {\cyrf }\IeC {\cyri }\IeC {\cyrk } $z_2$\relax }}{36}{figure.caption.33}}
\@writefile{lof}{\contentsline {figure}{\numberline {24}{\ignorespaces \IeC {\CYRG }\IeC {\cyrr }\IeC {\cyra }\IeC {\cyrf }\IeC {\cyri }\IeC {\cyrk } $z_3$\relax }}{36}{figure.caption.34}}
\@writefile{toc}{\contentsline {section}{\textbf  {\ignorespaces {\IeC {\CYRZ }\IeC {\CYRA }\IeC {\CYRK }\IeC {\CYRL }\IeC {\CYRYU }\IeC {\CYRCH }\IeC {\CYRE }\IeC {\CYRN }\IeC {\CYRI }\IeC {\CYRE }}}}{37}{section*.35}}
\bibcite{1.}{1}
\bibcite{2.}{2}
\bibcite{3.}{3}
\bibcite{4.}{4}
\@writefile{toc}{\contentsline {section}{\textbf  {\ignorespaces {\IeC {\CYRS }\IeC {\CYRP }\IeC {\CYRI }\IeC {\CYRS }\IeC {\CYRO }\IeC {\CYRK } \IeC {\CYRI }\IeC {\CYRS }\IeC {\CYRP }\IeC {\CYRO }\IeC {\CYRL }\IeC {\CYRSFTSN }\IeC {\CYRZ }\IeC {\CYRO }\IeC {\CYRV }\IeC {\CYRA }\IeC {\CYRN }\IeC {\CYRN }\IeC {\CYRERY }\IeC {\CYRH } \IeC {\CYRI }\IeC {\CYRS }\IeC {\CYRT }\IeC {\CYRO }\IeC {\CYRCH }\IeC {\CYRN }\IeC {\CYRI }\IeC {\CYRK }\IeC {\CYRO }\IeC {\CYRV }}}}{38}{section*.36}}
\@writefile{toc}{\contentsline {section}{\textbf  {\ignorespaces {\IeC {\CYRP }\IeC {\CYRR }\IeC {\CYRI }\IeC {\CYRL }\IeC {\CYRO }\IeC {\CYRZH }\IeC {\CYRE }\IeC {\CYRN }\IeC {\CYRI }\IeC {\CYRE }}}}{39}{section*.37}}
