\BOOKMARK [2][]{Outline0.1}{\376\377\004\037\004\076\004\101\004\102\004\060\004\075\004\076\004\062\004\072\004\060\000\040\004\067\004\060\004\064\004\060\004\107\004\070}{}% 1
\BOOKMARK [2][]{Outline0.2}{\376\377\004\042\004\065\004\076\004\100\004\065\004\074\004\060}{}% 2
\BOOKMARK [2][]{Outline0.3}{\376\377\004\037\004\100\004\070\004\074\004\065\004\100}{}% 3
\BOOKMARK [2][]{Outline0.4}{\376\377\004\037\004\100\004\070\004\074\004\065\004\100}{}% 4
\BOOKMARK [2][]{Outline0.5}{\376\377\004\037\004\100\004\070\004\074\004\065\004\100}{}% 5
\BOOKMARK [2][]{Outline0.6}{\376\377\004\040\004\065\004\067\004\103\004\073\004\114\004\102\004\060\004\102\004\113}{}% 6
\BOOKMARK [2][]{Outline0.7}{\376\377\004\040\004\065\004\067\004\103\004\073\004\114\004\102\004\060\004\102\004\113}{}% 7
\BOOKMARK [2][]{Outline0.8}{\376\377\004\040\004\065\004\067\004\103\004\073\004\114\004\102\004\060\004\102\004\113}{}% 8
\BOOKMARK [2][]{Outline0.9}{\376\377\004\027\004\060\004\072\004\073\004\116\004\107\004\065\004\075\004\070\004\065}{}% 9
